{
    "name": "python3-dateparser",
    "buildsystem": "simple",
    "build-commands": [
        "pip3 install --verbose --exists-action=i --no-index --find-links=\"file://${PWD}\" --prefix=${FLATPAK_DEST} \"dateparser\" --no-build-isolation"
    ],
    "sources": [
        {
            "type": "file",
            "url": "https://files.pythonhosted.org/packages/27/b5/92d404279fd5f4f0a17235211bb0f5ae7a0d9afb7f439086ec247441ed28/regex-2022.10.31.tar.gz",
            "sha256": "a3a98921da9a1bf8457aeee6a551948a83601689e5ecdd736894ea9bbec77e83"
        },
        {
            "type": "file",
            "url": "https://files.pythonhosted.org/packages/a2/ae/61a2a31028c7cfa413ba07c0656fa00d35778b951920f82b246d0977a108/dateparser-1.1.5-py2.py3-none-any.whl",
            "sha256": "ceb159f1b4a9df54ed6209e91298097deafde476037f8611b4cb2b1cb8b31c58"
        },
        {
            "type": "file",
            "url": "https://files.pythonhosted.org/packages/31/b7/3bc2c1868f27677139b772e4fde95265b93151912fd90eb874827943bfcf/tzlocal-4.2-py3-none-any.whl",
            "sha256": "89885494684c929d9191c57aa27502afc87a579be5cdd3225c77c463ea043745"
        },
        {
            "type": "file",
            "url": "https://files.pythonhosted.org/packages/3d/19/4de17f0d5cf5a0d87aa67532d4c2fa75e6e7d8df13c27635ff40fa6f4b76/pytz-2022.7-py2.py3-none-any.whl",
            "sha256": "93007def75ae22f7cd991c84e02d434876818661f8df9ad5df9e950ff4e52cfd"
        },
        {
            "type": "file",
            "url": "https://files.pythonhosted.org/packages/36/7a/87837f39d0296e723bb9b62bbb257d0355c7f6128853c78955f57342a56d/python_dateutil-2.8.2-py2.py3-none-any.whl",
            "sha256": "961d03dc3453ebbc59dbdea9e4e11c5651520a876d0f4db161e8674aae935da9"
        },
        {
            "type": "file",
            "url": "https://files.pythonhosted.org/packages/fa/5e/f99a7df3ae2079211d31ec23b1d34380c7870c26e99159f6e422dcbab538/tzdata-2022.7-py2.py3-none-any.whl",
            "sha256": "2b88858b0e3120792a3c0635c23daf36a7d7eeeca657c323da299d2094402a0d"
        },
        {
            "type": "file",
            "url": "https://files.pythonhosted.org/packages/eb/73/3eaab547ca809754e67e06871cff0fc962bafd4b604e15f31896a0f94431/pytz_deprecation_shim-0.1.0.post0-py2.py3-none-any.whl",
            "sha256": "8314c9692a636c8eb3bda879b9f119e350e93223ae83e70e80c31675a0fdc1a6"
        }
    ]
}